module gitlab.com/keiwanko/summarize_lab

go 1.12

require (
	cloud.google.com/go v0.41.0 // indirect
	github.com/coreos/bbolt v1.3.3 // indirect
	github.com/coreos/etcd v3.3.13+incompatible // indirect
	github.com/coreos/go-semver v0.3.0 // indirect
	github.com/coreos/go-systemd v0.0.0-20190620071333-e64a0ec8b42a // indirect
	github.com/go-kit/kit v0.9.0 // indirect
	github.com/golang/groupcache v0.0.0-20190702054246-869f871628b6 // indirect
	github.com/grpc-ecosystem/grpc-gateway v1.9.3 // indirect
	github.com/kisielk/errcheck v1.2.0 // indirect
	github.com/konsorten/go-windows-terminal-sequences v1.0.2 // indirect
	github.com/kr/pty v1.1.8 // indirect
	github.com/magiconair/properties v1.8.1 // indirect
	github.com/mitchellh/go-homedir v1.1.0
	github.com/pelletier/go-toml v1.4.0 // indirect
	github.com/pkg/errors v0.8.1 // indirect
	github.com/prometheus/common v0.6.0 // indirect
	github.com/prometheus/procfs v0.0.3 // indirect
	github.com/rogpeppe/fastuuid v1.1.0 // indirect
	github.com/russross/blackfriday v2.0.0+incompatible // indirect
	github.com/sirupsen/logrus v1.4.2 // indirect
	github.com/spf13/afero v1.2.2 // indirect
	github.com/spf13/cobra v0.0.5
	github.com/spf13/jwalterweatherman v1.1.0 // indirect
	github.com/spf13/viper v1.4.0
	github.com/stretchr/objx v0.2.0 // indirect
	github.com/ugorji/go v1.1.7 // indirect
	go.etcd.io/bbolt v1.3.3 // indirect
	golang.org/x/crypto v0.0.0-20190701094942-4def268fd1a4 // indirect
	golang.org/x/exp v0.0.0-20190627132806-fd42eb6b336f // indirect
	golang.org/x/image v0.0.0-20190703141733-d6a02ce849c9 // indirect
	golang.org/x/mobile v0.0.0-20190607214518-6fa95d984e88 // indirect
	golang.org/x/net v0.0.0-20190628185345-da137c7871d7 // indirect
	golang.org/x/sys v0.0.0-20190626221950-04f50cda93cb // indirect
	golang.org/x/tools v0.0.0-20190703212419-2214986f1668 // indirect
	golang.org/x/tools/gopls v0.1.1 // indirect
	google.golang.org/genproto v0.0.0-20190701230453-710ae3a149df // indirect
	google.golang.org/grpc v1.22.0 // indirect
)
